<svg width="20" height="20" viewBox="0 0 20 20" fill="none" xmlns="http://www.w3.org/2000/svg">
<path d="M10.5192 8.0037L7.28807 11.3871C6.74525 11.9555 6.74525 12.878 7.28807 13.4464V13.4464C7.83159 14.0148 8.71193 14.0148 9.25475 13.4464L15.3309 7.08406C16.223 6.14985 16.223 4.63559 15.3309 3.70066V3.70066C14.4387 2.76645 12.9919 2.76645 12.0997 3.70066L4.95255 11.1845C3.68248 12.5151 3.68248 14.6721 4.95255 16.002V16.002C6.2233 17.3327 8.28324 17.3327 9.5533 16.002L15.7171 9.54856" stroke="#7D899C" stroke-width="1.1" stroke-linecap="round" stroke-linejoin="round"/>
</svg>
