<?xml version="1.0" encoding="utf-8"?>
<!-- Generator: Adobe Illustrator 17.1.0, SVG Export Plug-In . SVG Version: 6.00 Build 0)  -->
<!DOCTYPE svg PUBLIC "-//W3C//DTD SVG 1.1//EN" "http://www.w3.org/Graphics/SVG/1.1/DTD/svg11.dtd">
<svg version="1.1" id="Layer_1" xmlns="http://www.w3.org/2000/svg" xmlns:xlink="http://www.w3.org/1999/xlink" x="0px" y="0px"
	 viewBox="4.8 4.8 20.4 20.4" enable-background="new 4.8 4.8 20.4 20.4" xml:space="preserve">
<path fill="none" stroke="#7D899C" stroke-width="2" stroke-linecap="round" stroke-linejoin="round" d="M11,24l7.4-8.3
	c0.3-0.4,0.3-0.9,0-1.3L11,6"/>
</svg>
