<?xml version="1.0" encoding="UTF-8"?>
<svg width="25px" height="22px" viewBox="0 0 25 22" version="1.1" xmlns="http://www.w3.org/2000/svg" xmlns:xlink="http://www.w3.org/1999/xlink">
    <!-- Generator: sketchtool 52.3 (67297) - http://www.bohemiancoding.com/sketch -->
    <title>87C65D60-FD58-4A67-BE9D-E3708FB7DA20</title>
    <desc>Created with sketchtool.</desc>
    <g id="UI-Kit" stroke="none" stroke-width="1" fill="none" fill-rule="evenodd" stroke-linecap="round" stroke-linejoin="round">
        <g id="00_7_1_UI_kit_Content" transform="translate(-691.000000, -3516.000000)" stroke="#FFFFFF" stroke-width="2">
            <g id="Group-2" transform="translate(0.000000, 50.000000)">
                <g id="Group-4" transform="translate(0.000000, 2418.000000)">
                    <g id="Group" transform="translate(60.000000, 90.000000)">
                        <g id="Group-12-Copy" transform="translate(290.000000, 708.000000)">
                            <g id="Group-15">
                                <g id="Ico_arrow_right" transform="translate(353.500000, 261.000000) rotate(180.000000) translate(-353.500000, -261.000000) translate(342.000000, 251.000000)">
                                    <path d="M2,9.5 L23,9.5" id="Stroke-1"></path>
                                    <path d="M10,0 L1.1252388,9.14678279 C0.753377795,9.53004177 0.74826248,10.1378497 1.11362025,10.5273131 L10,20" id="Path-2"></path>
                                </g>
                            </g>
                        </g>
                    </g>
                </g>
            </g>
        </g>
    </g>
</svg>