<?xml version="1.0" encoding="utf-8"?>
<!-- Generator: Adobe Illustrator 17.1.0, SVG Export Plug-In . SVG Version: 6.00 Build 0)  -->
<!DOCTYPE svg PUBLIC "-//W3C//DTD SVG 1.1//EN" "http://www.w3.org/Graphics/SVG/1.1/DTD/svg11.dtd">
<svg version="1.1" id="Layer_1" xmlns="http://www.w3.org/2000/svg" xmlns:xlink="http://www.w3.org/1999/xlink" x="0px" y="0px"
	 viewBox="2.9 2.9 24.1 24.1" enable-background="new 2.9 2.9 24.1 24.1" xml:space="preserve">
<path fill="#179E6E" d="M26.8,14.6l-3,3c-0.2,0.2-0.4,0.2-0.6,0.2c-0.2,0-0.4-0.1-0.6-0.2l-3-3c-0.3-0.3-0.3-0.8,0-1.2
	c0.3-0.3,0.9-0.3,1.2,0l1.6,1.6v0c0-4-3.3-7.2-7.3-7.2c-1.9,0-3.8,0.8-5.2,2.1c-0.3,0.3-0.8,0.3-1.2,0C8.3,9.6,8.3,9,8.7,8.7
	C10.4,7,12.6,6.1,15,6.1c4.9,0,9,4,9,8.9v0l1.6-1.6c0.3-0.3,0.9-0.3,1.2,0C27.1,13.7,27.1,14.2,26.8,14.6z"/>
<path fill="#179E6E" d="M21.3,21.3c-1.7,1.7-3.9,2.6-6.3,2.6c-4.9,0-9-4-9-8.9v0l-1.6,1.6c-0.3,0.3-0.8,0.3-1.2,0
	c-0.3-0.3-0.3-0.8,0-1.2l3-3c0.2-0.2,0.4-0.2,0.6-0.2c0.2,0,0.4,0.1,0.6,0.2l3,3c0.3,0.3,0.3,0.8,0,1.2c-0.2,0.2-0.4,0.2-0.6,0.2
	c-0.2,0-0.4-0.1-0.6-0.2L7.7,15v0c0,4,3.3,7.2,7.3,7.2c2,0,3.8-0.8,5.2-2.1c0.3-0.3,0.9-0.3,1.2,0C21.7,20.4,21.7,21,21.3,21.3z"/>
</svg>
