<svg width="30" height="30" viewBox="0 0 30 30" fill="none" xmlns="http://www.w3.org/2000/svg">
<path fill-rule="evenodd" clip-rule="evenodd" d="M18.2616 7.55061L17.9962 6.61441C17.763 5.79135 16.934 5.16113 16.085 5.16113H13.5707C12.7218 5.16113 11.8926 5.79157 11.6594 6.61441L11.3941 7.55061H7.85677C7.47177 7.55061 7.15967 7.86526 7.15967 8.2534C7.15967 8.64154 7.47177 8.95619 7.85677 8.95619H21.7988C22.1838 8.95619 22.496 8.64154 22.496 8.2534C22.496 7.86526 22.1838 7.55061 21.7988 7.55061H18.2616ZM19.2893 23.4336C19.531 23.4336 19.7445 23.2277 19.7545 22.9857L20.2658 10.6136C20.2819 10.2258 20.6067 9.92454 20.9913 9.9407C21.376 9.95686 21.6749 10.2843 21.6588 10.6721L21.1475 23.0442C21.1063 24.0399 20.2776 24.8392 19.2893 24.8392H10.3664C9.37747 24.8392 8.54923 24.0386 8.50813 23.0442L7.9968 10.6721C7.98077 10.2843 8.27961 9.95686 8.66428 9.9407C9.04894 9.92454 9.37377 10.2258 9.3898 10.6136L9.90113 22.9857C9.91111 23.2271 10.1248 23.4336 10.3664 23.4336H19.2893ZM14.8278 21.8875C14.5198 21.8875 14.2701 21.6358 14.2701 21.3253V11.7673C14.2701 11.4568 14.5198 11.2051 14.8278 11.2051C15.1358 11.2051 15.3855 11.4568 15.3855 11.7673V21.3253C15.3855 21.6358 15.1358 21.8875 14.8278 21.8875ZM11.482 21.3418C11.491 21.6522 11.7479 21.8964 12.0558 21.8872C12.3637 21.8781 12.6059 21.6191 12.5968 21.3087L12.318 11.7508C12.3089 11.4404 12.052 11.1962 11.7442 11.2054C11.4363 11.2145 11.1941 11.4735 11.2031 11.7839L11.482 21.3418ZM17.5998 21.8872C17.292 21.8781 17.0497 21.6191 17.0588 21.3087L17.3376 11.7508C17.3467 11.4404 17.6036 11.1962 17.9115 11.2054C18.2193 11.2145 18.4616 11.4735 18.4525 11.7839L18.1737 21.3418C18.1646 21.6522 17.9077 21.8964 17.5998 21.8872ZM13.5707 6.56671H16.085C16.3116 6.56671 16.5934 6.78099 16.6557 7.00055L16.8116 7.55061H12.8441L13 7.00055C13.0621 6.78118 13.3442 6.56671 13.5707 6.56671Z" fill="#7D899C"/>
</svg>
