<svg width="35" height="35" viewBox="0 0 35 35" fill="none" xmlns="http://www.w3.org/2000/svg">
<rect width="35" height="35" fill="#179E6E"/>
<path d="M27.4475 7.55261L7.55273 27.4473" stroke="white" stroke-width="2" stroke-linecap="round" stroke-linejoin="round"/>
<path d="M27.4475 27.4473L7.55273 7.55261" stroke="white" stroke-width="2" stroke-linecap="round" stroke-linejoin="round"/>
</svg>
