<svg width="34" height="34" viewBox="0 0 34 34" fill="none" xmlns="http://www.w3.org/2000/svg">
<path fill-rule="evenodd" clip-rule="evenodd" d="M0 2.8C0 1.2536 1.2536 0 2.8 0H31.2C32.7464 0 34 1.2536 34 2.8V31.2C34 32.7464 32.7464 34 31.2 34H2.8C1.2536 34 0 32.7464 0 31.2V2.8Z" fill="url(#paint0_linear)"/>
<path fill-rule="evenodd" clip-rule="evenodd" d="M26.1215 7.85179C26.7307 8.46337 27.1031 9.07495 27.3823 9.79696C27.653 10.4935 27.8392 11.2919 27.89 12.4641C27.9492 13.6363 27.9577 14.0101 27.9577 17.0001C27.9577 19.9731 27.9409 20.3595 27.8908 21.5162L27.89 21.536C27.8392 22.6997 27.653 23.5066 27.3823 24.2031C27.1031 24.9251 26.7307 25.5367 26.1215 26.1483C25.5123 26.7599 24.903 27.1336 24.1838 27.4139C23.49 27.6858 22.6946 27.8726 21.5269 27.9236C20.3592 27.9831 19.9869 27.9916 17.0084 27.9916C14.0468 27.9916 13.662 27.9748 12.5097 27.9245L12.49 27.9236C11.3307 27.8726 10.5269 27.6858 9.83305 27.4139C9.11382 27.1336 8.50459 26.7599 7.89536 26.1483C7.28613 25.5367 6.91382 24.9251 6.63459 24.2031C6.36382 23.5066 6.17767 22.7082 6.1269 21.536C6.06767 20.3638 6.0592 19.99 6.0592 17.0001C6.0592 14.0269 6.07594 13.6406 6.12604 12.4839L6.1269 12.4641C6.17767 11.3004 6.36382 10.4935 6.63459 9.79696C6.91382 9.07495 7.28613 8.46337 7.89536 7.85179C8.50459 7.24021 9.11382 6.86646 9.83305 6.58615C10.5269 6.31434 11.3223 6.12746 12.49 6.0765C13.6577 6.01704 14.03 6.00854 17.0084 6.00854C19.9701 6.00854 20.3549 6.02534 21.5072 6.07564L21.5269 6.0765C22.6861 6.12746 23.49 6.31434 24.1838 6.58615C24.903 6.86646 25.5123 7.24021 26.1215 7.85179ZM25.5377 23.4811C25.69 23.0989 25.8677 22.5128 25.9184 21.4425L25.9199 21.4097C25.9695 20.2803 25.9861 19.9026 25.9861 17.0001C25.9861 14.1085 25.9697 13.731 25.9204 12.6035L25.9184 12.5576C25.8677 11.4873 25.69 10.9097 25.5377 10.519C25.3346 10.0008 25.0977 9.63557 24.7169 9.25333C24.3361 8.87109 23.9638 8.62476 23.4561 8.42939C23.0754 8.2765 22.4915 8.09812 21.4254 8.04715C20.2746 7.9877 19.9192 7.9792 17 7.9792C14.1195 7.9792 13.7435 7.99574 12.6204 8.04514L12.5746 8.04715C11.5084 8.09812 10.9331 8.2765 10.5438 8.42939C10.0277 8.63326 9.66382 8.87109 9.28305 9.25333C8.90228 9.63557 8.6569 10.0093 8.46228 10.519C8.30997 10.9012 8.13228 11.4873 8.08151 12.5576C8.02228 13.7128 8.01382 14.0695 8.01382 17.0001C8.01382 19.8916 8.0303 20.2691 8.07951 21.3966L8.08151 21.4425C8.13228 22.5128 8.30997 23.0904 8.46228 23.4811C8.66536 23.9993 8.90228 24.3645 9.28305 24.7468C9.66382 25.129 10.0361 25.3753 10.5438 25.5707C10.9246 25.7236 11.5084 25.902 12.5746 25.9529C13.7254 26.0124 14.0723 26.0209 17 26.0209C19.8807 26.0209 20.2546 26.0045 21.3702 25.9554L21.4254 25.9529C22.4915 25.902 23.0669 25.7236 23.4561 25.5707C23.9723 25.3668 24.3361 25.129 24.7169 24.7468C25.0977 24.3645 25.3431 23.9908 25.5377 23.4811Z" fill="white"/>
<path fill-rule="evenodd" clip-rule="evenodd" d="M11.373 17.0001C11.373 13.8827 13.8946 11.3514 17 11.3514C20.1054 11.3514 22.6269 13.8827 22.6269 17.0001C22.6269 20.1175 20.1054 22.6487 17 22.6487C13.8946 22.6487 11.373 20.1175 11.373 17.0001ZM13.3446 17.0001C13.3446 19.0302 14.9861 20.6696 17 20.6696C19.0138 20.6696 20.6554 19.0217 20.6554 17.0001C20.6554 14.97 19.0223 13.3306 17 13.3306C14.9777 13.3306 13.3446 14.9785 13.3446 17.0001Z" fill="white"/>
<path d="M22.8469 12.4472C23.5713 12.4472 24.1584 11.8577 24.1584 11.1306C24.1584 10.4034 23.5713 9.81396 22.8469 9.81396C22.1226 9.81396 21.5354 10.4034 21.5354 11.1306C21.5354 11.8577 22.1226 12.4472 22.8469 12.4472Z" fill="white"/>
<defs>
<linearGradient id="paint0_linear" x1="17" y1="-17" x2="-17" y2="17" gradientUnits="userSpaceOnUse">
<stop stop-color="#A03CAE"/>
<stop offset="0.466259" stop-color="#F72B84"/>
<stop offset="1" stop-color="#FF9841"/>
</linearGradient>
</defs>
</svg>
