<svg width="50" height="50" viewBox="0 0 50 50" fill="none" xmlns="http://www.w3.org/2000/svg">
<path d="M48 25C48 37.7025 37.7025 48 25 48C12.2975 48 2 37.7025 2 25C2 12.2975 12.2975 2 25 2C37.7025 2 48 12.2975 48 25Z" fill="#F05454" stroke="white" stroke-width="4"/>
<path fill-rule="evenodd" clip-rule="evenodd" d="M33.2863 23.304C34.5396 24.0874 34.5396 25.9127 33.2863 26.696L23.0599 33.0875C21.7278 33.9201 19.9999 32.9624 19.9999 31.3915V18.6085C19.9999 17.0377 21.7278 16.08 23.0599 16.9125L33.2863 23.304Z" fill="white"/>
</svg>
