<svg width="30" height="30" viewBox="0 0 30 30" fill="none" xmlns="http://www.w3.org/2000/svg">
<path fill-rule="evenodd" clip-rule="evenodd" d="M1.52831 16.1543L10.7075 25.5926C10.9717 25.8642 11.3019 26 11.6981 26C12.0943 26 12.4465 25.8642 12.7547 25.5926C13.4591 24.8683 13.4591 24.144 12.7547 23.4198L6.08491 16.5617H27.5472C27.9434 16.5617 28.2846 16.4146 28.5708 16.1204C28.8569 15.8261 29 15.4753 29 15.0679C29 14.6605 28.8569 14.3097 28.5708 14.0154C28.2846 13.7212 27.9434 13.5741 27.5472 13.5741H6.08491L12.7547 6.64815C13.4591 5.96913 13.4591 5.2675 12.7547 4.54321C12.0943 3.81893 11.412 3.81893 10.7075 4.54321L1.52831 13.9815C0.823898 14.7058 0.823898 15.43 1.52831 16.1543Z" fill="#7D899C"/>
</svg>
