<svg xmlns="http://www.w3.org/2000/svg" xmlns:xlink="http://www.w3.org/1999/xlink" width="137" height="208" viewBox="0 0 137 208">
    <defs>
        <path id="a" d="M60.098 73.095h14.768V58.327H60.098z"/>
        <path id="c" d="M69.894 61.752c-.73.1-2.115.522-2.814.9.803-.18 1.925-.275 2.699-.315-.302.45-.472.68-.96 1.22.838-.512 1.075-.55 1.846-1.01.295.439.364 1.452.373 2.252.253-.508.559-2.423.43-2.772.462-.312.467-.433.588-.643-.472.042-.734.047-.989.128-.643-.4-1.97-.814-3.055-.9.341.146 1.713.901 1.882 1.14z"/>
        <path id="e" d="M62.886 68.177c-.285.08-.485.15-.72.26.328.202.593.36.96.535.196.43.4.72.732 1.052a1.98 1.98 0 0 1-.066-.804c.41.121.76.186 1.226.2a3.03 3.03 0 0 1-1.114-.696c.106-.296.225-.526.42-.822-.359.055-.625.096-.935.156-.252-.45-.367-.884-.496-1.49-.07.64-.095 1.1-.007 1.609z"/>
        <path id="g" d="M64.986 63.655s-.265-.026-.702-.013c-.436.02-1.006.128-1.226.22.425.019 1.01.134 1.232.363 0 0-.647.59-1.283 1.89 0 0 1.158-1.11 1.662-1.384 0 0 .263.892.444 1.339 0 0 .163-1.032.431-1.633 0 0 .077-.045.447-.08.373-.034.898-.057 1.9.125 0 0-.919-.599-2.062-.756.045-.157.205-.497.343-.68-.205.032-.796.295-1.186.609z"/>
    </defs>
    <g fill="none" fill-rule="evenodd">
        <g transform="translate(0 1)">
            <path fill="#8CEDD0" d="M4.247 126.995c-12.414-43.32 10.69-62.935 24.641-67.252l3.44 11.111-1.72-5.555 1.758 5.542c-1.2.392-29.232 10.044-16.939 52.95l-11.18 3.204z"/>
            <path stroke="#353535" stroke-linecap="round" stroke-width="1.278" d="M4.247 126.995c-12.414-43.32 10.69-62.935 24.641-67.252l3.44 11.111-1.72-5.555 1.758 5.542c-1.2.392-29.232 10.044-16.939 52.95l-11.18 3.204z"/>
            <path fill="#13CAA4" d="M10.608 134.177l-3.55 1.172-2.726-8.256 3.55-1.172z"/>
            <path stroke="#353535" stroke-linecap="round" stroke-linejoin="round" stroke-width="1.278" d="M10.608 134.177l-3.55 1.172-2.726-8.256 3.55-1.172z"/>
            <path fill="#13CAA4" d="M18.085 131.996l-3.55 1.172-2.726-8.256 3.55-1.172z"/>
            <path stroke="#353535" stroke-linecap="round" stroke-linejoin="round" stroke-width="1.278" d="M18.085 131.996l-3.55 1.172-2.726-8.256 3.55-1.172z"/>
            <path fill="#13CAA4" d="M26.24 64.794s-33.177 15.29-18.357 61.128l-3.55 1.17S-13.692 79.899 26.239 60.71v4.085z"/>
            <path stroke="#353535" stroke-linecap="round" stroke-width="1.278" d="M4.247 127.28c-12.414-43.32 10.69-62.934 24.641-67.252l3.44 11.111-1.72-5.555 1.758 5.543c-1.2.39-29.232 10.043-16.939 52.95l-11.18 3.204z"/>
            <path stroke="#353535" stroke-linecap="round" stroke-linejoin="round" stroke-width="1.278" d="M10.608 134.462l-3.55 1.173-2.726-8.257 3.55-1.172zM18.085 132.281l-3.55 1.173-2.726-8.257 3.55-1.172z"/>
            <path fill="#8CEDD0" d="M92.981 48.18h-50.48c-3.11 0-5.63-2.513-5.63-5.612V8.886c0-3.1 2.52-5.613 5.63-5.613h50.48c3.11 0 5.63 2.513 5.63 5.613v33.682c0 3.099-2.52 5.611-5.63 5.611"/>
            <path stroke="#353535" stroke-linecap="round" stroke-width="1.264" d="M92.981 48.18h-50.48c-3.11 0-5.63-2.513-5.63-5.612V8.886c0-3.1 2.52-5.613 5.63-5.613h50.48c3.11 0 5.63 2.513 5.63 5.613v33.682c0 3.099-2.52 5.611-5.63 5.611z"/>
            <path fill="#13CAA4" d="M67.935 3.274H42.5c-3.11 0-5.63 2.513-5.63 5.61v33.684c0 3.099 2.52 5.612 5.63 5.612h25.434V3.274z"/>
            <path stroke="#353535" stroke-linecap="round" stroke-width="1.264" d="M92.981 48.18h-50.48c-3.11 0-5.63-2.513-5.63-5.612V8.886c0-3.1 2.52-5.613 5.63-5.613h50.48c3.11 0 5.63 2.513 5.63 5.613v33.682c0 3.099-2.52 5.611-5.63 5.611z"/>
            <path fill="#D9D8D7" d="M29.58 36.406h7.29V16.69h-7.29z"/>
            <path stroke="#353535" stroke-linecap="round" stroke-width="1.264" d="M29.58 36.406h7.29V16.69h-7.29z"/>
            <path fill="#D9D8D7" d="M98.611 36.406h7.291V16.69h-7.29z"/>
            <path stroke="#353535" stroke-linecap="round" stroke-width="1.264" d="M98.611 36.406h7.291V16.69h-7.29zM105.902 26.548h6.656V6.971"/>
            <path fill="#FFDC9A" d="M116.098 3.684a3.429 3.429 0 0 1-3.434 3.423 3.43 3.43 0 0 1-3.434-3.423 3.43 3.43 0 0 1 3.434-3.423 3.429 3.429 0 0 1 3.434 3.423"/>
            <path stroke="#353535" stroke-linecap="round" stroke-width="1.264" d="M116.098 3.684a3.429 3.429 0 0 1-3.434 3.423 3.43 3.43 0 0 1-3.434-3.423 3.43 3.43 0 0 1 3.434-3.423 3.429 3.429 0 0 1 3.434 3.423z"/>
            <path fill="#A0A0A0" d="M29.58 22.3h7.29v-5.608h-7.29zM98.611 22.3h7.291v-5.608h-7.29z"/>
            <path stroke="#353535" stroke-linecap="round" stroke-width="1.264" d="M92.981 48.18h-50.48c-3.11 0-5.63-2.513-5.63-5.612V8.886c0-3.1 2.52-5.613 5.63-5.613h50.48c3.11 0 5.63 2.513 5.63 5.613v33.682c0 3.099-2.52 5.611-5.63 5.611zM29.58 36.406h7.29V16.69h-7.29zM98.611 36.406h7.291V16.69h-7.29zM105.902 26.548h6.656V6.971"/>
            <path stroke="#353535" stroke-linecap="round" stroke-width="1.264" d="M116.098 3.684a3.429 3.429 0 0 1-3.434 3.423 3.43 3.43 0 0 1-3.434-3.423 3.43 3.43 0 0 1 3.434-3.423 3.429 3.429 0 0 1 3.434 3.423z"/>
            <path fill="#8CEDD0" d="M56.062 53.793h23.102v-5.614H56.062z"/>
            <path stroke="#353535" stroke-linecap="round" stroke-width="1.264" d="M56.062 53.793h23.102v-5.614H56.062z"/>
            <path fill="#000" d="M53.598 22.298c0 2.436-1.98 4.41-4.424 4.41a4.417 4.417 0 0 1-4.425-4.41c0-2.435 1.98-4.41 4.425-4.41a4.417 4.417 0 0 1 4.424 4.41M90.477 22.298c0 2.436-1.98 4.41-4.425 4.41a4.417 4.417 0 0 1-4.424-4.41c0-2.435 1.98-4.41 4.424-4.41a4.417 4.417 0 0 1 4.425 4.41"/>
            <path fill="#FFF" d="M51.987 20.896c0 .775-.63 1.402-1.406 1.402a1.403 1.403 0 0 1-1.407-1.402c0-.774.63-1.401 1.407-1.401.776 0 1.406.627 1.406 1.401M88.866 20.896c0 .775-.63 1.402-1.407 1.402a1.403 1.403 0 0 1-1.406-1.402c0-.774.629-1.401 1.406-1.401.776 0 1.407.627 1.407 1.401"/>
            <path fill="#FFB786" d="M68.95 42.32c-.692 0-1.189-.032-1.435-.05-12.532-.039-17.505-5.873-17.712-6.122a2.74 2.74 0 0 1 .373-3.866 2.76 2.76 0 0 1 3.853.343c.202.225 3.863 4.153 13.608 4.153l.283.016c.066.006 7.86.68 13.951-4.485a2.76 2.76 0 0 1 3.883.312 2.74 2.74 0 0 1-.313 3.87c-6.125 5.196-13.338 5.828-16.49 5.829"/>
            <path stroke="#353535" stroke-linecap="round" stroke-width="1.264" d="M68.95 42.32c-.692 0-1.189-.032-1.435-.05-12.532-.039-17.505-5.873-17.712-6.122a2.74 2.74 0 0 1 .373-3.866 2.76 2.76 0 0 1 3.853.343c.202.225 3.863 4.153 13.608 4.153l.283.016c.066.006 7.86.68 13.951-4.485a2.76 2.76 0 0 1 3.883.312 2.74 2.74 0 0 1-.313 3.87c-6.125 5.196-13.338 5.828-16.49 5.829z"/>
            <path fill="#000" d="M44.977 12.732h9.21v-2.529h-9.21zM81.04 12.732h9.21v-2.529h-9.21z"/>
            <path fill="#8CEDD0" d="M76.774 194.711h16.282V142.54H76.774z"/>
            <path stroke="#353535" stroke-linecap="round" stroke-width="1.278" d="M76.774 194.711h16.282V142.54H76.774z"/>
            <path fill="#13CAA4" d="M77.737 166.741h6.307v-23.227h-6.307zM77.769 191.504h6.307v-19.657h-6.307z"/>
            <path stroke="#353535" stroke-linecap="round" stroke-width="1.278" d="M76.774 194.711h16.282V142.54H76.774z"/>
            <path fill="#13CAA4" d="M100.594 205.79H69.236v-9.378a3.916 3.916 0 0 1 3.916-3.916h23.526a3.916 3.916 0 0 1 3.916 3.916v9.377z"/>
            <path stroke="#353535" stroke-linecap="round" stroke-linejoin="round" stroke-width="1.278" d="M100.594 205.79H69.236v-9.378a3.916 3.916 0 0 1 3.916-3.916h23.526a3.916 3.916 0 0 1 3.916 3.916v9.377z"/>
            <path fill="#009A75" d="M96.678 192.496H73.152a3.916 3.916 0 0 0-3.916 3.916v9.377h8.5v-8.549c0-1.153.935-2.086 2.087-2.086h16.855a3.915 3.915 0 0 1 3.916 3.916v-2.658a3.915 3.915 0 0 0-3.916-3.916"/>
            <path stroke="#353535" stroke-linecap="round" stroke-linejoin="round" stroke-width="1.278" d="M100.594 205.79H69.236v-9.378a3.916 3.916 0 0 1 3.916-3.916h23.526a3.916 3.916 0 0 1 3.916 3.916v9.377z"/>
            <path fill="#D9D8D7" d="M73.407 176.001h23.017v-8.309H73.407z"/>
            <path stroke="#353535" stroke-linecap="round" stroke-width="1.278" d="M73.407 176.001h23.017v-8.309H73.407z"/>
            <path fill="#A0A0A0" d="M74.354 175.017h7.192v-6.34h-7.192z"/>
            <path stroke="#353535" stroke-linecap="round" stroke-width="1.278" d="M73.407 176.001h23.017v-8.309H73.407z"/>
            <path stroke="#353535" stroke-linecap="round" stroke-linejoin="round" stroke-width="1.278" d="M100.594 205.79H69.236v-9.378a3.916 3.916 0 0 1 3.916-3.916h23.526a3.916 3.916 0 0 1 3.916 3.916v9.377z"/>
            <path fill="#8CEDD0" d="M42.492 194.711h16.282V142.54H42.492z"/>
            <path stroke="#353535" stroke-linecap="round" stroke-width="1.278" d="M42.492 194.711h16.282V142.54H42.492z"/>
            <path fill="#13CAA4" d="M43.455 166.741h6.307v-23.227h-6.307zM43.487 191.504h6.307v-19.657h-6.307z"/>
            <path stroke="#353535" stroke-linecap="round" stroke-width="1.278" d="M42.492 194.711h16.282V142.54H42.492z"/>
            <path fill="#13CAA4" d="M66.312 205.79H34.953v-9.378a3.916 3.916 0 0 1 3.916-3.916h23.527a3.916 3.916 0 0 1 3.916 3.916v9.377z"/>
            <path stroke="#353535" stroke-linecap="round" stroke-linejoin="round" stroke-width="1.278" d="M66.312 205.79H34.953v-9.378a3.916 3.916 0 0 1 3.916-3.916h23.527a3.916 3.916 0 0 1 3.916 3.916v9.377z"/>
            <path fill="#009A75" d="M62.395 192.496H38.87a3.916 3.916 0 0 0-3.916 3.916v9.377h8.5v-8.549c0-1.153.935-2.086 2.087-2.086h16.855a3.915 3.915 0 0 1 3.916 3.916v-2.658a3.915 3.915 0 0 0-3.916-3.916"/>
            <path stroke="#353535" stroke-linecap="round" stroke-linejoin="round" stroke-width="1.278" d="M66.312 205.79H34.953v-9.378a3.916 3.916 0 0 1 3.916-3.916h23.527a3.916 3.916 0 0 1 3.916 3.916v9.377z"/>
            <path fill="#D9D8D7" d="M39.124 176.001H62.14v-8.309H39.124z"/>
            <path stroke="#353535" stroke-linecap="round" stroke-width="1.278" d="M39.124 176.001H62.14v-8.309H39.124z"/>
            <path fill="#A0A0A0" d="M40.072 175.017h7.192v-6.34h-7.192z"/>
            <path stroke="#353535" stroke-linecap="round" stroke-width="1.278" d="M39.124 176.001H62.14v-8.309H39.124z"/>
            <path stroke="#353535" stroke-linecap="round" stroke-linejoin="round" stroke-width="1.278" d="M66.312 205.79H34.953v-9.378a3.916 3.916 0 0 1 3.916-3.916h23.527a3.916 3.916 0 0 1 3.916 3.916v9.377z"/>
            <path fill="#FFDC9A" d="M106.508 150.106H28.514a5.517 5.517 0 0 1-5.516-5.517V59.418a5.517 5.517 0 0 1 5.516-5.517h77.994a5.517 5.517 0 0 1 5.517 5.517v85.171a5.517 5.517 0 0 1-5.517 5.517"/>
            <path stroke="#353535" stroke-linecap="round" stroke-width="1.278" d="M106.508 150.106H28.514a5.517 5.517 0 0 1-5.516-5.517V59.418a5.517 5.517 0 0 1 5.516-5.517h77.994a5.517 5.517 0 0 1 5.517 5.517v85.171a5.517 5.517 0 0 1-5.517 5.517z"/>
            <path stroke="#353535" stroke-linecap="round" stroke-width="1.278" d="M106.508 150.106H28.514a5.517 5.517 0 0 1-5.516-5.517V59.418a5.517 5.517 0 0 1 5.516-5.517h77.994a5.517 5.517 0 0 1 5.517 5.517v85.171a5.517 5.517 0 0 1-5.517 5.517z"/>
            <path fill="#F3B25F" d="M67.576 53.901H30.118c-3.932 0-7.12 3.213-7.12 7.178v81.85c0 3.964 3.188 7.177 7.12 7.177h37.458V53.9z"/>
            <path stroke="#353535" stroke-linecap="round" stroke-width="1.278" d="M106.508 150.106H28.514a5.517 5.517 0 0 1-5.516-5.517V59.418a5.517 5.517 0 0 1 5.516-5.517h77.994a5.517 5.517 0 0 1 5.517 5.517v85.171a5.517 5.517 0 0 1-5.517 5.517z"/>
            <path fill="#FFF" d="M107.422 88.929c-7.556-21.315-31.305-19.713-39.91-3.517-8.607-16.196-32.356-17.798-39.911 3.517-9.668 27.272 36.207 55.242 39.91 57.446 3.704-2.204 49.578-30.174 39.91-57.446"/>
            <path stroke="#353535" stroke-linecap="round" stroke-width="1.278" d="M107.422 88.929c-7.556-21.315-31.305-19.713-39.91-3.517-8.607-16.196-32.356-17.798-39.911 3.517-9.668 27.272 36.207 55.242 39.91 57.446 3.704-2.204 49.578-30.174 39.91-57.446z"/>
            <text fill="#000" font-family="BNPPRounded, BNPP Rounded" font-size="13.272" letter-spacing="-.016">
                <tspan x="37.125" y="106.057">ОТЛИЧНО!</tspan>
            </text>
            <path fill="#13CAA4" d="M60.098 73.095h14.766V58.329H60.098z"/>
            <mask id="b" fill="#fff">
                <use xlink:href="#a"/>
            </mask>
            <path fill="#009A75" d="M58.381 74.812h18.202V56.61H58.38z" mask="url(#b)"/>
            <path stroke="#353535" stroke-linecap="round" stroke-linejoin="round" stroke-width="1.278" d="M60.098 73.095h14.766V58.329H60.098z" mask="url(#b)"/>
            <mask id="d" fill="#fff">
                <use xlink:href="#c"/>
            </mask>
            <path fill="#FFF" d="M65.616 66.264h7.903v-7.116h-7.903z" mask="url(#d)"/>
            <mask id="f" fill="#fff">
                <use xlink:href="#e"/>
            </mask>
            <path fill="#FFF" d="M60.701 71.488h5.782v-6.384H60.7z" mask="url(#f)"/>
            <mask id="h" fill="#fff">
                <use xlink:href="#g"/>
            </mask>
            <path fill="#FFF" d="M61.541 67.578h7.812v-5.996H61.54z" mask="url(#h)"/>
        </g>
        <path fill="#8CEDD0" d="M115.724 83.135a.7.7 0 0 1-.684-.585 7.037 7.037 0 0 1-.685-.344c1.32 3.762 4.914 6.474 9.141 6.474 3.87 0 7.207-2.274 8.758-5.545h-16.53z"/>
        <path fill="#13CAA4" d="M115.702 59.263h.457c.536-.11 1.09-.17 1.66-.17h2.874V47.375h-7.84v13.4a8.112 8.112 0 0 1 2.223-1.202.8.8 0 0 1 .626-.31"/>
        <path fill="#8CEDD0" d="M115.288 66.947v-7.071c-1.827.931-3.084 2.82-3.084 5v11.23c0 2.068 1.133 3.876 2.811 4.85v-6.77c0-.39.318-.705.71-.705h19.063v-5.828h-18.79a.707.707 0 0 1-.71-.706"/>
        <path fill="#383838" d="M116.706 66.242h18.082v-6.834h-18.082v6.834zm18.082 7.238h-19.064a.707.707 0 0 0-.709.706v6.77c-1.678-.975-2.81-2.781-2.81-4.85v-11.23c0-2.18 1.255-4.068 3.084-5v7.071c0 .39.316.705.708.705h18.791v5.828zm-.273 8.245h-18.082V74.89h18.082v6.834zm-20.16.48c.222.127.45.243.685.345.06.33.336.585.684.585h16.53a9.695 9.695 0 0 1-8.758 5.545c-4.227 0-7.82-2.712-9.14-6.475zm-.854-34.83h6.869v10.472h-2.518c-.499 0-.985.053-1.455.151h-.4a.697.697 0 0 0-.548.277c-.71.256-1.365.619-1.948 1.074V47.375zm8.286-.705a.706.706 0 0 0-.708-.705h-8.286a.707.707 0 0 0-.71.705v11.466h-.932v18.389c.321 5.156 2.497 9.126 6.528 11.91a11.061 11.061 0 0 0 5.817 1.655c4.67 0 8.667-2.885 10.306-6.955h2.404V57.847h-14.419V46.67z"/>
        <path fill="#13CAA4" d="M116.706 66.242h18.082v-6.834h-18.082zM116.433 81.724h18.082v-6.833h-18.082z"/>
    </g>
</svg>
