<svg width="30" height="30" viewBox="0 0 30 30" fill="none" xmlns="http://www.w3.org/2000/svg">
<rect width="30" height="30" fill="transparent"/>
<path d="M9.02718 13.077H20.3859" stroke="white" stroke-width="1.56522" stroke-linecap="round" stroke-linejoin="round"/>
<path d="M9.02718 16.6639H14.4182" stroke="white" stroke-width="1.56522" stroke-linecap="round" stroke-linejoin="round"/>
<path fill-rule="evenodd" clip-rule="evenodd" d="M24 11.5404C24 9.81146 22.5985 8.40991 20.8696 8.40991H8.54347C6.81458 8.40991 5.41304 9.81146 5.41304 11.5403V18.6574C5.41304 20.3863 6.81458 21.7878 8.54348 21.7878H9.02717V25.645L15.0411 21.7878H20.8696C22.5985 21.7878 24 20.3863 24 18.6574V11.5404Z" stroke="white" stroke-width="1.56522" stroke-linecap="round" stroke-linejoin="round"/>
</svg>
