<svg width="18" height="26" viewBox="0 0 18 26" fill="none" xmlns="http://www.w3.org/2000/svg">
<path d="M11 13H1" stroke="#7D899C" stroke-width="2" stroke-linecap="round" stroke-linejoin="round"/>
<path d="M9 8C11.4743 10.6424 10.8683 10.199 10.8683 10.199C12.3772 11.8105 12.3772 14.4238 10.8683 16.0353L9.21946 18" stroke="#7D899C" stroke-width="2" stroke-linecap="round" stroke-linejoin="round"/>
<path d="M1 8L1 4C1 2.34315 2.34315 1 4 1H14.0367C15.6731 1 17 2.29307 17 3.88776V22.1122C17 23.7069 15.6731 25 14.0367 25H4.06839C2.43141 25 1.09664 23.6877 1.06883 22.051L1 18" stroke="#7D899C" stroke-width="2" stroke-linecap="round" stroke-linejoin="round"/>
</svg>
