<svg xmlns="http://www.w3.org/2000/svg" width="20" height="20" viewBox="0 0 20 20">
    <g fill="none" fill-rule="evenodd" stroke="#7D899C" stroke-linecap="round" stroke-linejoin="round" stroke-width="1.32">
        <path d="M14.259 6.861c0 2.144-1.723 3.882-3.848 3.882S6.563 9.005 6.563 6.861c0-2.143 1.723-3.882 3.848-3.882s3.848 1.739 3.848 3.882zM14.078 11.028H6.724c-2.07 0-3.748 1.693-3.748 3.782v1.052c0 .563.358 1.065.89 1.248 1.91.657 3.98.985 6.21.985 2.267 0 4.536-.34 6.808-1.019a1.32 1.32 0 0 0 .942-1.265V14.81c0-2.089-1.678-3.782-3.748-3.782z"/>
    </g>
</svg>
